{
    "dev": {
        "awscloudformation": {
            "AuthRoleName": "amplify-tests-20190424101415-authRole",
            "UnauthRoleArn": "arn:aws:iam::340211512660:role/amplify-tests-20190424101415-unauthRole",
            "AuthRoleArn": "arn:aws:iam::340211512660:role/amplify-tests-20190424101415-authRole",
            "Region": "eu-west-1",
            "DeploymentBucketName": "amplify-tests-20190424101415-deployment",
            "UnauthRoleName": "amplify-tests-20190424101415-unauthRole",
            "StackName": "amplify-tests-20190424101415",
            "StackId": "arn:aws:cloudformation:eu-west-1:340211512660:stack/amplify-tests-20190424101415/91fd4920-6660-11e9-b9b9-02beba5c02de"
        }
    },
    "prod": {
        "awscloudformation": {
            "AuthRoleName": "amplify-tests-20190424102205-authRole",
            "UnauthRoleArn": "arn:aws:iam::340211512660:role/amplify-tests-20190424102205-unauthRole",
            "AuthRoleArn": "arn:aws:iam::340211512660:role/amplify-tests-20190424102205-authRole",
            "Region": "eu-west-1",
            "DeploymentBucketName": "amplify-tests-20190424102205-deployment",
            "UnauthRoleName": "amplify-tests-20190424102205-unauthRole",
            "StackName": "amplify-tests-20190424102205",
            "StackId": "arn:aws:cloudformation:eu-west-1:340211512660:stack/amplify-tests-20190424102205/a9d4d7b0-6661-11e9-ba7a-0aaf98d2f8ea"
        }
    }
}